{
"autoplayBgm":true,"autoplayBgs":false,"battleback1Name":"","battleback2Name":"","bgm":{"name":"Castle1","pan":0,"pitch":100,"volume":90},"bgs":{"name":"","pan":0,"pitch":100,"volume":90},"disableDashing":false,"displayName":"Maho's Bedroom","encounterList":[],"encounterStep":30,"height":13,"note":"","parallaxLoopX":false,"parallaxLoopY":false,"parallaxName":"","parallaxShow":true,"parallaxSx":0,"parallaxSy":0,"scrollType":0,"specifyBattleback":false,"tilesetId":3,"width":17,
"data":[1536,1536,1536,1536,1536,1536,1536,1536,1536,1536,1536,1536,1536,1536,1536,1536,1536,1536,5923,5921,5921,5921,5921,5921,5921,5921,5921,5921,5921,5921,5921,5921,5925,1536,1536,5920,6274,6274,6274,6274,6274,6274,6274,6274,6274,6274,6274,6274,6274,5920,1536,1536,5920,6280,6280,6280,6280,6280,6280,6280,6280,6280,6280,6280,6280,6280,5920,1536,1536,5920,3282,3268,3268,3268,3268,3268,3268,3268,3268,3268,3268,3268,3284,5920,1536,1536,5920,3288,3276,3276,3276,3256,3248,3248,3248,3248,3248,3248,3248,3272,5920,1536,1536,5907,5921,5921,5921,5933,3264,3248,3248,3248,3248,3248,3248,3248,3272,5920,1536,1536,5920,6274,6274,6274,6278,3264,3248,3248,3248,3248,3248,3248,3248,3272,5920,1536,1536,5920,6280,6280,6280,6284,3264,3248,3248,3248,3248,3248,3248,3248,3272,5920,1536,1536,5920,3282,3268,3268,3268,3249,3248,3248,3248,3248,3248,3248,3248,3272,5920,1536,1536,5920,3288,3276,3276,3276,3276,3276,3260,3276,3276,3276,3276,3276,3286,5920,1536,1536,5929,5921,5921,5921,5921,5921,5925,3292,5923,5921,5921,5921,5921,5921,5927,1536,1536,1536,1536,1536,1536,1536,1536,5920,1611,5920,1536,1536,1536,1536,1536,1536,1536,0,0,0,0,0,0,0,0,0,0,0,0,0,0,0,0,0,0,0,0,0,0,0,0,0,0,0,0,0,0,0,0,0,0,0,0,0,0,0,0,0,0,0,0,0,0,0,0,0,0,0,0,0,0,0,0,0,0,0,0,0,0,0,0,0,0,0,0,0,0,0,0,0,0,0,0,0,0,0,0,0,0,0,0,0,0,0,0,0,0,0,0,0,0,0,0,0,0,0,0,0,0,0,0,0,0,0,0,0,0,0,0,0,0,0,0,0,0,0,0,0,0,0,0,0,0,0,0,0,0,0,0,0,0,0,0,0,0,0,0,0,0,0,0,0,0,0,0,0,0,0,0,0,0,0,0,0,0,0,0,0,0,0,0,0,0,0,0,0,0,0,0,0,0,0,0,0,0,0,0,0,0,0,0,0,0,0,0,0,0,0,0,0,0,0,0,0,0,0,0,0,0,0,0,0,0,0,0,0,0,0,0,0,0,0,0,0,0,0,0,0,0,0,0,0,0,0,0,0,0,0,0,0,0,0,0,0,0,0,0,0,0,0,0,0,0,0,0,0,0,0,0,0,0,0,0,0,0,0,0,0,0,0,0,0,0,0,146,199,147,0,0,0,0,0,0,0,0,0,0,0,0,0,0,154,195,155,0,0,0,0,0,0,0,0,0,0,0,0,0,0,0,0,0,0,0,0,0,0,0,0,0,0,0,0,0,0,0,0,0,0,0,0,0,0,0,0,0,0,0,0,0,0,0,0,0,0,0,0,0,0,0,0,0,174,0,0,0,0,0,0,0,0,0,0,0,0,0,0,0,0,0,0,50,51,0,0,0,0,0,0,0,0,0,0,0,0,0,0,0,0,0,0,0,0,0,0,0,0,0,0,0,0,0,0,0,0,0,0,0,0,0,0,0,0,0,0,0,0,0,0,0,0,0,0,0,0,0,0,0,0,0,0,0,0,0,0,0,0,0,0,0,0,0,0,0,0,0,0,0,0,0,0,0,0,0,0,0,0,0,0,0,0,0,0,0,0,0,0,0,0,0,0,0,0,0,0,0,0,0,0,0,0,0,0,0,0,0,146,199,147,134,121,164,165,124,160,134,145,145,145,0,0,0,0,154,195,155,142,0,122,123,0,168,142,153,153,153,0,0,0,0,0,0,0,0,0,0,0,106,0,0,0,0,0,0,0,0,0,0,0,0,0,0,106,108,100,0,0,53,54,55,0,0,0,0,0,0,0,0,0,0,0,106,0,0,61,62,63,0,0,0,0,172,173,161,175,50,51,0,0,0,0,0,0,0,0,0,0,0,0,0,169,162,58,59,0,0,0,69,68,70,71,0,0,0,0,0,80,0,0,0,0,0,0,0,77,76,78,79,0,0,0,0,0,88,0,0,0,0,0,0,0,0,0,0,0,0,0,0,0,0,0,0,0,0,0,0,0,0,0,0,0,0,0,0,0,0,0,0,0,0,0,0,0,0,0,0,0,0,0,0,0,0,0,0,0,0,0,0,0,0,0,0,0,0,0,0,0,0,0,0,0,0,0,0,0,0,0,0,0,0,0,0,0,0,0,0,0,0,0,0,0,0,0,0,0,0,0,0,0,0,0,5,0,0,0,0,0,0,0,0,0,0,0,0,0,0,0,0,5,0,0,5,0,0,0,0,0,0,0,0,0,0,0,0,0,5,0,0,5,0,0,0,0,0,0,0,0,0,0,0,0,0,5,0,0,0,0,0,0,0,0,0,0,0,0,0,0,0,0,5,0,0,0,0,0,0,5,0,0,0,0,0,0,0,0,0,5,0,0,0,0,0,0,5,0,5,0,0,0,0,0,0,0,5,0,0,5,0,0,0,0,0,0,0,0,0,0,0,0,0,5,0,0,5,0,0,0,0,0,0,0,0,0,0,0,0,0,5,0,0,0,0,0,0,0,0,0,0,0,0,0,0,0,0,5,0,0,0,0,0,0,0,0,5,0,5,0,0,0,0,0,0,0,0,0,0,0,0,0,0,0,0,0,0,0,0,0,0,0,0,0,0,0,0,0,0,0,0,0,0,0,0,0,0,0,0,0,0,0,0,0,0,0,0,0,0,0,0,0,0,0,0,0,0,0,0,0,0,0,0,0,0,0,0,0,0,0,0,0,0,0,0,0,0,0,0,0,0,0,0,0,0,0,0,0,0,0,0,0,0,0,0,0,0,0,0,0,0,0,0,0,0,0,0,0,0,0,0,0,0,0,0,0,0,0,0,0,0,0,0,0,0,0,0,0,0,0,0,0,0,0,0,0,0,0,0,0,0,0,0,0,0,0,0,0,0,0,0,0,0,0,0,0,0,0,0,0,0,0,0,0,0,0,0,0,0,0,0,0,0,0,0,0,0,0,0,0,0,0,0,0,0,0,0,0,0,0,0,0,0,0,0,0,0,0,0,0,0,0,0,0,0,0,0,0,0,0,0,0,0,0,0,0,0,0,0,0,0,0,0,0,0,0],
"events":[
null,
{"id":1,"name":"Exit to Basement","note":"","pages":[{"conditions":{"actorId":1,"actorValid":false,"itemId":1,"itemValid":false,"selfSwitchCh":"A","selfSwitchValid":false,"switch1Id":1,"switch1Valid":false,"switch2Id":1,"switch2Valid":false,"variableId":1,"variableValid":false,"variableValue":0},"directionFix":false,"image":{"characterIndex":0,"characterName":"","direction":2,"pattern":0,"tileId":0},"list":[{"code":201,"indent":0,"parameters":[0,7,10,0,2,0]},{"code":0,"indent":0,"parameters":[]}],"moveFrequency":3,"moveRoute":{"list":[{"code":0,"parameters":[]}],"repeat":true,"skippable":false,"wait":false},"moveSpeed":3,"moveType":0,"priorityType":0,"stepAnime":false,"through":false,"trigger":1,"walkAnime":true}],"x":8,"y":12},
{"id":2,"name":"Maho","note":"","pages":[{"conditions":{"actorId":1,"actorValid":false,"itemId":1,"itemValid":false,"selfSwitchCh":"A","selfSwitchValid":false,"switch1Id":1,"switch1Valid":false,"switch2Id":1,"switch2Valid":false,"variableId":1,"variableValid":false,"variableValue":0},"directionFix":false,"image":{"tileId":0,"characterName":"Actor2","direction":4,"pattern":1,"characterIndex":4},"list":[{"code":0,"indent":0,"parameters":[]}],"moveFrequency":3,"moveRoute":{"list":[{"code":0,"parameters":[]}],"repeat":true,"skippable":false,"wait":false},"moveSpeed":3,"moveType":0,"priorityType":1,"stepAnime":false,"through":false,"trigger":0,"walkAnime":true},{"conditions":{"actorId":1,"actorValid":false,"itemId":1,"itemValid":false,"selfSwitchCh":"A","selfSwitchValid":false,"switch1Id":2,"switch1Valid":true,"switch2Id":1,"switch2Valid":false,"variableId":1,"variableValid":false,"variableValue":0},"directionFix":false,"image":{"characterIndex":0,"characterName":"","direction":2,"pattern":0,"tileId":0},"list":[{"code":0,"indent":0,"parameters":[]}],"moveFrequency":3,"moveRoute":{"list":[{"code":0,"parameters":[]}],"repeat":true,"skippable":false,"wait":false},"moveSpeed":3,"moveType":0,"priorityType":0,"stepAnime":false,"through":false,"trigger":0,"walkAnime":true}],"x":10,"y":9},
{"id":3,"name":"Talking to Maho","note":"","pages":[{"conditions":{"actorId":1,"actorValid":false,"itemId":1,"itemValid":false,"selfSwitchCh":"A","selfSwitchValid":false,"switch1Id":1,"switch1Valid":false,"switch2Id":1,"switch2Valid":false,"variableId":1,"variableValid":false,"variableValue":0},"directionFix":false,"image":{"characterIndex":0,"characterName":"","direction":2,"pattern":0,"tileId":0},"list":[{"code":101,"indent":0,"parameters":["Actor2",4,0,2]},{"code":401,"indent":0,"parameters":["Maho: Huh? What? Who? Where did you come"]},{"code":401,"indent":0,"parameters":["from? How did you get in here?"]},{"code":101,"indent":0,"parameters":["Actor3",5,0,2]},{"code":401,"indent":0,"parameters":["Hai: Um, the basement? I took care of your"]},{"code":401,"indent":0,"parameters":["minotaur problem, by the way."]},{"code":101,"indent":0,"parameters":["Actor2",4,0,2]},{"code":401,"indent":0,"parameters":["Maho: Steve?! What happened to Steve?!"]},{"code":101,"indent":0,"parameters":["Actor3",5,0,2]},{"code":401,"indent":0,"parameters":["Hai: Oh, uh, vacation. Yeah, he just left"]},{"code":401,"indent":0,"parameters":["for a vacation. Anyway, I've got a package"]},{"code":401,"indent":0,"parameters":["for you. Here!"]},{"code":101,"indent":0,"parameters":["Actor2",4,0,2]},{"code":401,"indent":0,"parameters":["Maho: A package? From who? And why is it"]},{"code":401,"indent":0,"parameters":["breathing faintly and rather warm to the"]},{"code":401,"indent":0,"parameters":["touch?"]},{"code":101,"indent":0,"parameters":["",0,0,2]},{"code":401,"indent":0,"parameters":["As Maho takes the package, a tiny, red, adorable,"]},{"code":401,"indent":0,"parameters":["slightly flaming baby dragon tears its way loose of the"]},{"code":401,"indent":0,"parameters":["wrapping."]},{"code":101,"indent":0,"parameters":["",0,0,2]},{"code":401,"indent":0,"parameters":["It looks at Maho, squints its eyes, then lets out the"]},{"code":401,"indent":0,"parameters":["smallest puff of smoke as it tries to roast him alive."]},{"code":401,"indent":0,"parameters":["Then it turns to look up at you for approval."]},{"code":101,"indent":0,"parameters":["Actor2",4,0,2]},{"code":401,"indent":0,"parameters":["Maho: Waaah!!! Someone is trying to"]},{"code":401,"indent":0,"parameters":["assassinate me! But... it seems like..."]},{"code":401,"indent":0,"parameters":["this baby dragon is maybe rather fond of"]},{"code":401,"indent":0,"parameters":["you instead?"]},{"code":101,"indent":0,"parameters":["Actor2",4,0,2]},{"code":401,"indent":0,"parameters":["Hmm, where did you say you got this?"]},{"code":101,"indent":0,"parameters":["Actor3",5,0,2]},{"code":401,"indent":0,"parameters":["Hai: Grandpa Sofu gave it to me. I'm not"]},{"code":401,"indent":0,"parameters":["sure where he got it."]},{"code":101,"indent":0,"parameters":["Actor2",4,0,2]},{"code":401,"indent":0,"parameters":["Maho: Hmm. There is more to this package"]},{"code":401,"indent":0,"parameters":["than meets the eye. Let's go question your"]},{"code":401,"indent":0,"parameters":["grandpa."]},{"code":101,"indent":0,"parameters":["",0,0,2]},{"code":401,"indent":0,"parameters":["Maho joined the party!"]},{"code":129,"indent":0,"parameters":[2,0,false]},{"code":126,"indent":0,"parameters":[5,1,0,1]},{"code":126,"indent":0,"parameters":[6,0,0,1]},{"code":121,"indent":0,"parameters":[2,2,0]},{"code":0,"indent":0,"parameters":[]}],"moveFrequency":3,"moveRoute":{"list":[{"code":0,"parameters":[]}],"repeat":true,"skippable":false,"wait":false},"moveSpeed":3,"moveType":0,"priorityType":0,"stepAnime":false,"through":false,"trigger":1,"walkAnime":true},{"conditions":{"actorId":1,"actorValid":false,"itemId":1,"itemValid":false,"selfSwitchCh":"A","selfSwitchValid":false,"switch1Id":2,"switch1Valid":true,"switch2Id":1,"switch2Valid":false,"variableId":1,"variableValid":false,"variableValue":0},"directionFix":false,"image":{"characterIndex":0,"characterName":"","direction":2,"pattern":0,"tileId":0},"list":[{"code":0,"indent":0,"parameters":[]}],"moveFrequency":3,"moveRoute":{"list":[{"code":0,"parameters":[]}],"repeat":true,"skippable":false,"wait":false},"moveSpeed":3,"moveType":0,"priorityType":0,"stepAnime":false,"through":false,"trigger":0,"walkAnime":true}],"x":8,"y":11},
{"id":4,"name":"Not an Exit","note":"","pages":[{"conditions":{"actorId":1,"actorValid":false,"itemId":1,"itemValid":false,"selfSwitchCh":"A","selfSwitchValid":false,"switch1Id":1,"switch1Valid":false,"switch2Id":1,"switch2Valid":false,"variableId":1,"variableValid":false,"variableValue":0},"directionFix":false,"image":{"characterIndex":0,"characterName":"","direction":2,"pattern":0,"tileId":0},"list":[{"code":101,"indent":0,"parameters":["Actor2",4,0,2]},{"code":401,"indent":0,"parameters":["Maho: Why don't we just go back out the way"]},{"code":401,"indent":0,"parameters":["you came in, shall we?"]},{"code":0,"indent":0,"parameters":[]}],"moveFrequency":3,"moveRoute":{"list":[{"code":0,"parameters":[]}],"repeat":true,"skippable":false,"wait":false},"moveSpeed":3,"moveType":0,"priorityType":0,"stepAnime":false,"through":false,"trigger":1,"walkAnime":true}],"x":3,"y":3},
{"id":5,"name":"Note","note":"","pages":[{"conditions":{"actorId":1,"actorValid":false,"itemId":1,"itemValid":false,"selfSwitchCh":"A","selfSwitchValid":false,"switch1Id":1,"switch1Valid":false,"switch2Id":1,"switch2Valid":false,"variableId":1,"variableValid":false,"variableValue":0},"directionFix":false,"image":{"characterIndex":0,"characterName":"","direction":2,"pattern":0,"tileId":0},"list":[{"code":101,"indent":0,"parameters":["Actor3",5,0,2]},{"code":401,"indent":0,"parameters":["Hai: \"Note to self: Find someone to bring"]},{"code":401,"indent":0,"parameters":["back to the tower for-\""]},{"code":101,"indent":0,"parameters":["Actor2",4,0,2]},{"code":401,"indent":0,"parameters":["Maho: Hey! Don't read that!"]},{"code":0,"indent":0,"parameters":[]}],"moveFrequency":3,"moveRoute":{"list":[{"code":0,"parameters":[]}],"repeat":true,"skippable":false,"wait":false},"moveSpeed":3,"moveType":0,"priorityType":1,"stepAnime":false,"through":false,"trigger":0,"walkAnime":true}],"x":5,"y":8},
{"id":6,"name":"Potions","note":"","pages":[{"conditions":{"actorId":1,"actorValid":false,"itemId":1,"itemValid":false,"selfSwitchCh":"A","selfSwitchValid":false,"switch1Id":1,"switch1Valid":false,"switch2Id":1,"switch2Valid":false,"variableId":1,"variableValid":false,"variableValue":0},"directionFix":false,"image":{"characterIndex":0,"characterName":"","direction":2,"pattern":0,"tileId":0},"list":[{"code":101,"indent":0,"parameters":["Actor2",4,0,2]},{"code":401,"indent":0,"parameters":["Maho: Yes, you may have those potions. I"]},{"code":401,"indent":0,"parameters":["suspect we'll need them."]},{"code":126,"indent":0,"parameters":[1,0,0,3]},{"code":123,"indent":0,"parameters":["A",0]},{"code":0,"indent":0,"parameters":[]}],"moveFrequency":3,"moveRoute":{"list":[{"code":0,"parameters":[]}],"repeat":true,"skippable":false,"wait":false},"moveSpeed":3,"moveType":0,"priorityType":1,"stepAnime":false,"through":false,"trigger":0,"walkAnime":true},{"conditions":{"actorId":1,"actorValid":false,"itemId":1,"itemValid":false,"selfSwitchCh":"A","selfSwitchValid":true,"switch1Id":1,"switch1Valid":false,"switch2Id":1,"switch2Valid":false,"variableId":1,"variableValid":false,"variableValue":0},"directionFix":false,"image":{"characterIndex":0,"characterName":"","direction":2,"pattern":0,"tileId":0},"list":[{"code":0,"indent":0,"parameters":[]}],"moveFrequency":3,"moveRoute":{"list":[{"code":0,"parameters":[]}],"repeat":true,"skippable":false,"wait":false},"moveSpeed":3,"moveType":0,"priorityType":0,"stepAnime":false,"through":false,"trigger":0,"walkAnime":true}],"x":8,"y":3},
{"id":7,"name":"Bookshelf","note":"","pages":[{"conditions":{"actorId":1,"actorValid":false,"itemId":1,"itemValid":false,"selfSwitchCh":"A","selfSwitchValid":false,"switch1Id":1,"switch1Valid":false,"switch2Id":1,"switch2Valid":false,"variableId":1,"variableValid":false,"variableValue":0},"directionFix":false,"image":{"characterIndex":0,"characterName":"","direction":2,"pattern":0,"tileId":0},"list":[{"code":101,"indent":0,"parameters":["Actor3",5,0,2]},{"code":401,"indent":0,"parameters":["Hai: \"A Mage's Guide to Cooking. Unleash"]},{"code":401,"indent":0,"parameters":["the Magic of Flavor.\""]},{"code":101,"indent":0,"parameters":["Actor2",4,0,2]},{"code":401,"indent":0,"parameters":["Maho: Stop going through my stuff!"]},{"code":0,"indent":0,"parameters":[]}],"moveFrequency":3,"moveRoute":{"list":[{"code":0,"parameters":[]}],"repeat":true,"skippable":false,"wait":false},"moveSpeed":3,"moveType":0,"priorityType":1,"stepAnime":false,"through":false,"trigger":0,"walkAnime":true}],"x":11,"y":9}
]
}