{
"autoplayBgm":false,"autoplayBgs":false,"battleback1Name":"","battleback2Name":"","bgm":{"name":"","pan":0,"pitch":100,"volume":90},"bgs":{"name":"","pan":0,"pitch":100,"volume":90},"disableDashing":false,"displayName":"","encounterList":[],"encounterStep":30,"height":3,"note":"","parallaxLoopX":false,"parallaxLoopY":false,"parallaxName":"","parallaxShow":true,"parallaxSx":0,"parallaxSy":0,"scrollType":0,"specifyBattleback":false,"tilesetId":1,"width":3,
"data":[0,0,0,0,0,0,0,0,0,0,0,0,0,0,0,0,0,0,0,0,0,0,0,0,0,0,0,0,0,0,0,0,0,0,0,0,0,0,0,0,0,0,0,0,0,0,0,0,0,0,0,0,0,0],
"events":[
null,
{"id":1,"name":"Game Opening","note":"","pages":[{"conditions":{"actorId":1,"actorValid":false,"itemId":1,"itemValid":false,"selfSwitchCh":"A","selfSwitchValid":false,"switch1Id":1,"switch1Valid":false,"switch2Id":1,"switch2Valid":false,"variableId":1,"variableValid":false,"variableValue":0},"directionFix":false,"image":{"characterIndex":0,"characterName":"","direction":2,"pattern":0,"tileId":0},"list":[{"code":211,"indent":0,"parameters":[0]},{"code":101,"indent":0,"parameters":["",0,2,1]},{"code":401,"indent":0,"parameters":[""]},{"code":401,"indent":0,"parameters":["                       Chapter 1"]},{"code":401,"indent":0,"parameters":["                 Hai's Delivery Service"]},{"code":201,"indent":0,"parameters":[0,3,13,11,8,0]},{"code":211,"indent":0,"parameters":[1]},{"code":222,"indent":0,"parameters":[]},{"code":101,"indent":0,"parameters":["People1",6,0,2]},{"code":401,"indent":0,"parameters":["Sofu: Hai.\\| Hai...\\| Hai!"]},{"code":101,"indent":0,"parameters":["People1",6,0,2]},{"code":401,"indent":0,"parameters":["Are you listening to me?"]},{"code":101,"indent":0,"parameters":["Actor3",5,0,2]},{"code":401,"indent":0,"parameters":["Hai: Huh?\\| Oh! Yes! Of course, Grandpa "]},{"code":401,"indent":0,"parameters":["Sofu!"]},{"code":101,"indent":0,"parameters":["People1",6,0,2]},{"code":401,"indent":0,"parameters":["Sofu: Sigh... Hai, this is important."]},{"code":101,"indent":0,"parameters":["People1",6,0,2]},{"code":401,"indent":0,"parameters":["I just got this package and it has to go to"]},{"code":401,"indent":0,"parameters":["Maho by tonight."]},{"code":101,"indent":0,"parameters":["People1",6,0,2]},{"code":401,"indent":0,"parameters":["Can I trust you with this?"]},{"code":101,"indent":0,"parameters":["Actor3",5,0,2]},{"code":401,"indent":0,"parameters":["Hai: Of course! You know you can count on"]},{"code":401,"indent":0,"parameters":["me!"]},{"code":101,"indent":0,"parameters":["People1",6,0,2]},{"code":401,"indent":0,"parameters":["Sofu: And you won't leave it in the bushes"]},{"code":401,"indent":0,"parameters":["by the lake this time?"]},{"code":101,"indent":0,"parameters":["Actor3",5,0,2]},{"code":401,"indent":0,"parameters":["Hai: I was going to come back and get that"]},{"code":401,"indent":0,"parameters":["after my nap! Nothing bad will happen to"]},{"code":401,"indent":0,"parameters":["this package. I promise!"]},{"code":101,"indent":0,"parameters":["People1",6,0,2]},{"code":401,"indent":0,"parameters":["Sofu: And do you remember how to get to"]},{"code":401,"indent":0,"parameters":["Maho's tower?"]},{"code":101,"indent":0,"parameters":["Actor3",5,0,2]},{"code":401,"indent":0,"parameters":["Hai: It's the giant tower just north of"]},{"code":401,"indent":0,"parameters":["Hika. How could I possibly miss it?"]},{"code":101,"indent":0,"parameters":["People1",6,0,2]},{"code":401,"indent":0,"parameters":["Sofu: Yes, how indeed..."]},{"code":101,"indent":0,"parameters":["People1",6,0,2]},{"code":401,"indent":0,"parameters":["Well, it's gotten a little dangerous out"]},{"code":401,"indent":0,"parameters":["there. I'm going to give you this staff"]},{"code":401,"indent":0,"parameters":["too. Hopefully you won't need it."]},{"code":101,"indent":0,"parameters":["Actor3",5,0,2]},{"code":401,"indent":0,"parameters":["Hai: I'm sure I'll be fine. Nothing bad"]},{"code":401,"indent":0,"parameters":["ever happens all the way out here!"]},{"code":101,"indent":0,"parameters":["People1",6,0,2]},{"code":401,"indent":0,"parameters":["Sofu: OK, Hai, be on your way then. Come"]},{"code":401,"indent":0,"parameters":["back here as soon as you've given Maho the"]},{"code":401,"indent":0,"parameters":["package. And, whatever you do, please don't"]},{"code":401,"indent":0,"parameters":["open it."]},{"code":101,"indent":0,"parameters":["Actor3",5,0,2]},{"code":401,"indent":0,"parameters":["Hai: You can trust me! I will absolutely be"]},{"code":401,"indent":0,"parameters":["able to resist the temptation, I'm sure!"]},{"code":126,"indent":0,"parameters":[5,0,0,1]},{"code":123,"indent":0,"parameters":["A",0]},{"code":0,"indent":0,"parameters":[]}],"moveFrequency":3,"moveRoute":{"list":[{"code":0,"parameters":[]}],"repeat":true,"skippable":false,"wait":false},"moveSpeed":3,"moveType":0,"priorityType":0,"stepAnime":false,"through":false,"trigger":3,"walkAnime":true},{"conditions":{"actorId":1,"actorValid":false,"itemId":1,"itemValid":false,"selfSwitchCh":"A","selfSwitchValid":true,"switch1Id":1,"switch1Valid":false,"switch2Id":1,"switch2Valid":false,"variableId":1,"variableValid":false,"variableValue":0},"directionFix":false,"image":{"characterIndex":0,"characterName":"","direction":2,"pattern":0,"tileId":0},"list":[{"code":0,"indent":0,"parameters":[]}],"moveFrequency":3,"moveRoute":{"list":[{"code":0,"parameters":[]}],"repeat":true,"skippable":false,"wait":false},"moveSpeed":3,"moveType":0,"priorityType":0,"stepAnime":false,"through":false,"trigger":0,"walkAnime":true}],"x":0,"y":0}
]
}