[
null,
{"id":1,"expanded":true,"name":"Eastern Province","order":1,"parentId":0,"scrollX":1131,"scrollY":1231},
{"id":2,"expanded":true,"name":"Town of Hika","order":2,"parentId":0,"scrollX":1131,"scrollY":1279},
{"id":3,"expanded":false,"name":"Sofu's Inn","order":4,"parentId":2,"scrollX":1139,"scrollY":641},
{"id":4,"expanded":false,"name":"Mise's Store","order":3,"parentId":2,"scrollX":1139,"scrollY":641},
{"id":5,"expanded":false,"name":"Nowhere","order":5,"parentId":0,"scrollX":1139,"scrollY":641},
{"id":6,"expanded":true,"name":"Maho's Tower","order":6,"parentId":0,"scrollX":1139,"scrollY":641},
{"id":7,"expanded":false,"name":"Maho's Basement","order":7,"parentId":6,"scrollX":1131,"scrollY":641},
{"id":8,"expanded":false,"name":"Maho's Bedroom","order":8,"parentId":6,"scrollX":1139,"scrollY":641},
{"id":9,"expanded":false,"name":"Minato","order":9,"parentId":0,"scrollX":1139,"scrollY":641}
]